Decathlon Clermont-Fd
0
Zone commerciale la Pardieu
63000
Clermont-Ferrand
Lundi
09
00
__
__
__
__
20
00
Mardi
09
00
__
__
__
__
20
00
Mercredi
09
00
__
__
__
__
20
00
Jeudi
09
00
__
__
__
__
20
00
Vendredi
09
00
__
__
__
__
20
00
Samedi
09
00
__
__
__
__
20
00
Dimanche
__
__
__
__
__
__
__
__
Découvrez les vêtements, chaussures et articles Décathlon au sein de votre boutique de sport de Clermont Ferrand. Vous y trouverez tout le matériel dont vous avez besoin afin de vous équiper dans votre pratique sportive. Toute la journée, des conseillers passionnés seront là pour vous accueillir et vous donner des services personnalisés. 
https://www.decathlon.fr/
0473273614
True
True
https://www.decathlon.fr/store/fr/0070006200062/photo-mag-1303905640.png
0
Dynamite Games
16
Rue Saint Esprit
63000
Clermont-Ferrand
Lundi
__
__
__
__
14
00
19
00
Mardi
10
00
12
30
14
00
19
00
Mercredi
10
00
12
30
14
00
19
00
Jeudi
10
00
12
30
14
00
19
00
Vendredi
10
00
12
30
14
00
19
00
Samedi
10
00
12
30
14
00
19
00
Dimanche
__
__
__
__
__
__
__
__
Guillaume et Nicolas vous accueillent dans leur magasin avec une ambiance très conviviale
http://www.dynamite-games.com/index.php?page=accueil
0473379112
True
False
http://www.dynamite-games.com/files/mag/97.jpg
1
Quelqu'un
9
Equipe vraiment génial. Les jeux vendus sont ouf !
